HR Data Analysis
…
Production Department has highly skilled labours which meets company expectations , also it has highest number of employees whose performance not upto the mark(Needs improvement/PIP)

Dept_Wise_Performance <-hr %>%
  filter(Performance.Score !='N/A- too early to review') %>%
  count(Department,Performance.Score)

Dept_Wise_Performance

## # A tibble: 25 x 3
##           Department Performance.Score     n
##               <fctr>            <fctr> <int>
##  1     Admin Offices      90-day meets     1
##  2     Admin Offices       Fully Meets     7
##  3  Executive Office       Fully Meets     1
##  4             IT/IS      90-day meets     8
##  5             IT/IS           Exceeds     2
##  6             IT/IS       Exceptional     4
##  7             IT/IS       Fully Meets    17
##  8             IT/IS Needs Improvement     1
##  9 Production             90-day meets    18
## 10 Production                  Exceeds    23
## # ... with 15 more rows
…
